{
  "minecraft:adventure/root": {
    "criteria": {
      "killed_by_something": "2023-04-04 13:56:08 +0000"
    },
    "done": true
  },
  "cfm:root": {
    "criteria": {
      "tick": "2023-04-04 13:40:50 +0000"
    },
    "done": true
  },
  "cfm:install": {
    "criteria": {
      "tick": "2023-04-04 13:40:50 +0000"
    },
    "done": true
  },
  "minecraft:adventure/adventuring_time": {
    "criteria": {
      "plains": "2023-04-04 13:40:49 +0000",
      "desert": "2023-04-04 14:30:19 +0000"
    },
    "done": false
  }
}